…
Processing Men's Slalom ...

Processing Men's Combined ...

Processing Women's Downhill ...

Processing Women's Super_G ...

Processing Women's Giant_Slalom ...

Processing Women's Slalom ...

Processing Women's Combined ...
# A tibble: 116 × 5
   Skier                      ID gender race_type predicted_points
   <chr>                   <int> <chr>  <chr>                <dbl>
 1 AJ Hurt                  3886 L      Downhill              23.4
 2 Adam Hofstedt            5449 M      Downhill               6  
 3 Alban Elezi Cannaferina  5693 M      Downhill              12.5
 4 Aleix Aubert Serracanta  6824 M      Downhill               8.6
 5 Alex Vinatzer            4040 M      Downhill              22  
 6 Alexander Schmid         2410 M      Downhill              15.8
 7 Alexis Pinturault         232 M      Downhill              44.5
 8 Alice Robinson           3891 L      Downhill              57.7
 9 Ana Bucik Jogan           180 L      Downhill              20.8
10 Andreas Zampa            1973 M      Downhill               2.4
# ℹ 106 more rows
$M_Downhill
# A tibble: 61 × 5
   Skier                 ID predicted_points gender race_type
   <chr>              <int>        <dbl[1d]> <chr>  <chr>    
 1 Marco Odermatt      3040             61.4 M      Downhill 
 2 Vincent Kriechmayr  1912             33.1 M      Downhill 
 3 Marco Schwarz       2561             13.1 M      Downhill 
 4 Alexis Pinturault    232             11.9 M      Downhill 
 5 Fredrik Møller      5758              9.9 M      Downhill 
 6 Lukas Feurstein     5336              5.7 M      Downhill 
 7 Giovanni Franzoni   5497              5.5 M      Downhill 
 8 Raphael Haaser      4221              4.1 M      Downhill 
 9 Tobias Kastlunger   5321              3.4 M      Downhill 
10 Joshua Sturm        5399              3.2 M      Downhill 
# ℹ 51 more rows

$M_Super_G
# A tibble: 61 × 5
   Skier                   ID predicted_points gender race_type
   <chr>                <int>        <dbl[1d]> <chr>  <chr>    
 1 Marco Odermatt        3040             63.3 M      Super_G  
 2 Marco Schwarz         2561             38.3 M      Super_G  
 3 Raphael Haaser        4221             36.4 M      Super_G  
 4 Atle Lie McGrath      4711             32.9 M      Super_G  
 5 Lukas Feurstein       5336             32.9 M      Super_G  
 6 Vincent Kriechmayr    1912             28.3 M      Super_G  
 7 Fredrik Møller        5758             24.1 M      Super_G  
 8 Giovanni Franzoni     5497             17.8 M      Super_G  
 9 Alexis Pinturault      232             17.1 M      Super_G  
10 Henrik Kristoffersen  2391             13.7 M      Super_G  
# ℹ 51 more rows

$M_Giant_Slalom
# A tibble: 61 × 5
   Skier                   ID predicted_points gender race_type   
   <chr>                <int>        <dbl[1d]> <chr>  <chr>       
 1 Marco Odermatt        3040             72.9 M      Giant_Slalom
 2 Loic Meillard         2565             50.3 M      Giant_Slalom
 3 Henrik Kristoffersen  2391             44.8 M      Giant_Slalom
 4 Marco Schwarz         2561             43.8 M      Giant_Slalom
 5 Stefan Brennsteiner   2436             39.4 M      Giant_Slalom
 6 Atle Lie McGrath      4711             30   M      Giant_Slalom
 7 Thomas Tumler         2409             28   M      Giant_Slalom
 8 Thibaut Favrot        2493             27.7 M      Giant_Slalom
 9 Zan Kranjec           1942             26.8 M      Giant_Slalom
10 Raphael Haaser        4221             26.7 M      Giant_Slalom
# ℹ 51 more rows

$M_Slalom
# A tibble: 61 × 5
   Skier                   ID predicted_points gender race_type
   <chr>                <int>        <dbl[1d]> <chr>  <chr>    
 1 Timon Haugan          3049             54   M      Slalom   
 2 Loic Meillard         2565             53.7 M      Slalom   
 3 Henrik Kristoffersen  2391             51.9 M      Slalom   
 4 Atle Lie McGrath      4711             47.6 M      Slalom   
 5 Linus Strasser        1932             39.9 M      Slalom   
 6 Marco Odermatt        3040             23   M      Slalom   
 7 Alexis Pinturault      232             22.3 M      Slalom   
 8 Alex Vinatzer         4040             22   M      Slalom   
 9 Stefan Brennsteiner   2436             21.3 M      Slalom   
10 Semyel Bissig         4294             20.4 M      Slalom   
# ℹ 51 more rows

$M_Combined
# A tibble: 61 × 5
   Skier                   ID predicted_points gender race_type
   <chr>                <int>        <dbl[1d]> <chr>  <chr>    
 1 Marco Schwarz         2561             53.3 M      Combined 
 2 Alexis Pinturault      232             44.5 M      Combined 
 3 Marco Odermatt        3040             43.9 M      Combined 
 4 Loic Meillard         2565             40.9 M      Combined 
 5 Atle Lie McGrath      4711             40.6 M      Combined 
 6 Henrik Kristoffersen  2391             40.1 M      Combined 
 7 Raphael Haaser        4221             36.4 M      Combined 
 8 River Radamus         2986             35.8 M      Combined 
 9 Stefan Brennsteiner   2436             27.1 M      Combined 
10 Filip Zubcic           249             25.9 M      Combined 
# ℹ 51 more rows

$L_Downhill
# A tibble: 55 × 5
   Skier                      ID predicted_points gender race_type
   <chr>                   <int>        <dbl[1d]> <chr>  <chr>    
 1 Mikaela Shiffrin           72             45.6 L      Downhill 
 2 Lara Gut-Behrami           10             43.9 L      Downhill 
 3 Emma Aicher              4194             38.5 L      Downhill 
 4 Kajsa Vickhoff Lie       2963             24.2 L      Downhill 
 5 Alice Robinson           3891             11.4 L      Downhill 
 6 Valerie Grenier           460             10.8 L      Downhill 
 7 Maryna Gasienica Daniel   289             10   L      Downhill 
 8 Wendy Holdener             78              9.6 L      Downhill 
 9 Stefanie Grob            4970              9.2 L      Downhill 
10 Paula Moltzan             294              9.1 L      Downhill 
# ℹ 45 more rows

$L_Super_G
# A tibble: 55 × 5
   Skier                 ID predicted_points gender race_type
   <chr>              <int>        <dbl[1d]> <chr>  <chr>    
 1 Lara Gut-Behrami      10             68.3 L      Super_G  
 2 Mikaela Shiffrin      72             48.6 L      Super_G  
 3 Alice Robinson      3891             31   L      Super_G  
 4 Emma Aicher         4194             29   L      Super_G  
 5 Kajsa Vickhoff Lie  2963             29   L      Super_G  
 6 Valerie Grenier      460             21.8 L      Super_G  
 7 Wendy Holdener        78             18.7 L      Super_G  
 8 Paula Moltzan        294             14.5 L      Super_G  
 9 Julia Scheib        2970             11.9 L      Super_G  
10 Sara Hector          133             11.7 L      Super_G  
# ℹ 45 more rows

$L_Giant_Slalom
# A tibble: 55 × 5
   Skier                      ID predicted_points gender race_type   
   <chr>                   <int>        <dbl[1d]> <chr>  <chr>       
 1 Lara Gut-Behrami           10             64.2 L      Giant_Slalom
 2 Alice Robinson           3891             57.7 L      Giant_Slalom
 3 Paula Moltzan             294             53.6 L      Giant_Slalom
 4 Julia Scheib             2970             49.5 L      Giant_Slalom
 5 Thea Louise Stjernesund  3019             45.8 L      Giant_Slalom
 6 Lara Colturi             5268             42.9 L      Giant_Slalom
 7 Sara Hector               133             40.6 L      Giant_Slalom
 8 Mikaela Shiffrin           72             33.9 L      Giant_Slalom
 9 Zrinka Ljutic            4175             28.5 L      Giant_Slalom
10 Valerie Grenier           460             27.4 L      Giant_Slalom
# ℹ 45 more rows

$L_Slalom
# A tibble: 55 × 5
   Skier                    ID predicted_points gender race_type
   <chr>                 <int>        <dbl[1d]> <chr>  <chr>    
 1 Mikaela Shiffrin         72             71.8 L      Slalom   
 2 Lena Dürr                28             50.9 L      Slalom   
 3 Katharina Liensberger  2921             50.3 L      Slalom   
 4 Wendy Holdener           78             45.4 L      Slalom   
 5 Camille Rast           3229             41.7 L      Slalom   
 6 Paula Moltzan           294             41.2 L      Slalom   
 7 Andreja Slokar         3736             38.7 L      Slalom   
 8 Zrinka Ljutic          4175             37.2 L      Slalom   
 9 Sara Hector             133             28   L      Slalom   
10 Lara Gut-Behrami         10             25.6 L      Slalom   
# ℹ 45 more rows

$L_Combined
# A tibble: 55 × 5
   Skier                    ID predicted_points gender race_type
   <chr>                 <int>        <dbl[1d]> <chr>  <chr>    
 1 Mikaela Shiffrin         72             73.5 L      Combined 
 2 Lara Gut-Behrami         10             54.6 L      Combined 
 3 Wendy Holdener           78             51.9 L      Combined 
 4 Lena Dürr                28             44.2 L      Combined 
 5 Sara Hector             133             42.1 L      Combined 
 6 Paula Moltzan           294             39.9 L      Combined 
 7 Katharina Liensberger  2921             38.1 L      Combined 
 8 Camille Rast           3229             34.5 L      Combined 
 9 Emma Aicher            4194             32   L      Combined 
10 Zrinka Ljutic          4175             29.8 L      Combined 
# ℹ 45 more rows
…
Processing Men's Slalom ...

Processing Men's Combined ...

Processing Women's Downhill ...

Processing Women's Super_G ...

Processing Women's Giant_Slalom ...

Processing Women's Slalom ...

Processing Women's Combined ...
# A tibble: 116 × 5
   Skier                      ID gender race_type predicted_points
   <chr>                   <int> <chr>  <chr>                <dbl>
 1 AJ Hurt                  3886 L      Downhill              23.4
 2 Adam Hofstedt            5449 M      Downhill               6  
 3 Alban Elezi Cannaferina  5693 M      Downhill              12.5
 4 Aleix Aubert Serracanta  6824 M      Downhill               8.6
 5 Alex Vinatzer            4040 M      Downhill              22  
 6 Alexander Schmid         2410 M      Downhill              15.8
 7 Alexis Pinturault         232 M      Downhill              44.5
 8 Alice Robinson           3891 L      Downhill              57.7
 9 Ana Bucik Jogan           180 L      Downhill              20.8
10 Andreas Zampa            1973 M      Downhill               2.4
# ℹ 106 more rows
$M_Downhill
# A tibble: 61 × 5
   Skier                 ID predicted_points gender race_type
   <chr>              <int>        <dbl[1d]> <chr>  <chr>    
 1 Marco Odermatt      3040             61.4 M      Downhill 
 2 Vincent Kriechmayr  1912             33.1 M      Downhill 
 3 Marco Schwarz       2561             13.1 M      Downhill 
 4 Alexis Pinturault    232             11.9 M      Downhill 
 5 Fredrik Møller      5758              9.9 M      Downhill 
 6 Lukas Feurstein     5336              5.7 M      Downhill 
 7 Giovanni Franzoni   5497              5.5 M      Downhill 
 8 Raphael Haaser      4221              4.1 M      Downhill 
 9 Tobias Kastlunger   5321              3.4 M      Downhill 
10 Joshua Sturm        5399              3.2 M      Downhill 
# ℹ 51 more rows

$M_Super_G
# A tibble: 61 × 5
   Skier                   ID predicted_points gender race_type
   <chr>                <int>        <dbl[1d]> <chr>  <chr>    
 1 Marco Odermatt        3040             63.3 M      Super_G  
 2 Marco Schwarz         2561             38.3 M      Super_G  
 3 Raphael Haaser        4221             36.4 M      Super_G  
 4 Atle Lie McGrath      4711             32.9 M      Super_G  
 5 Lukas Feurstein       5336             32.9 M      Super_G  
 6 Vincent Kriechmayr    1912             28.3 M      Super_G  
 7 Fredrik Møller        5758             24.1 M      Super_G  
 8 Giovanni Franzoni     5497             17.8 M      Super_G  
 9 Alexis Pinturault      232             17.1 M      Super_G  
10 Henrik Kristoffersen  2391             13.7 M      Super_G  
# ℹ 51 more rows

$M_Giant_Slalom
# A tibble: 61 × 5
   Skier                   ID predicted_points gender race_type   
   <chr>                <int>        <dbl[1d]> <chr>  <chr>       
 1 Marco Odermatt        3040             72.9 M      Giant_Slalom
 2 Loic Meillard         2565             50.3 M      Giant_Slalom
 3 Henrik Kristoffersen  2391             44.8 M      Giant_Slalom
 4 Marco Schwarz         2561             43.8 M      Giant_Slalom
 5 Stefan Brennsteiner   2436             39.4 M      Giant_Slalom
 6 Atle Lie McGrath      4711             30   M      Giant_Slalom
 7 Thomas Tumler         2409             28   M      Giant_Slalom
 8 Thibaut Favrot        2493             27.7 M      Giant_Slalom
 9 Zan Kranjec           1942             26.8 M      Giant_Slalom
10 Raphael Haaser        4221             26.7 M      Giant_Slalom
# ℹ 51 more rows

$M_Slalom
# A tibble: 61 × 5
   Skier                   ID predicted_points gender race_type
   <chr>                <int>        <dbl[1d]> <chr>  <chr>    
 1 Timon Haugan          3049             54   M      Slalom   
 2 Loic Meillard         2565             53.7 M      Slalom   
 3 Henrik Kristoffersen  2391             51.9 M      Slalom   
 4 Atle Lie McGrath      4711             47.6 M      Slalom   
 5 Linus Strasser        1932             39.9 M      Slalom   
 6 Marco Odermatt        3040             23   M      Slalom   
 7 Alexis Pinturault      232             22.3 M      Slalom   
 8 Alex Vinatzer         4040             22   M      Slalom   
 9 Stefan Brennsteiner   2436             21.3 M      Slalom   
10 Semyel Bissig         4294             20.4 M      Slalom   
# ℹ 51 more rows

$M_Combined
# A tibble: 61 × 5
   Skier                   ID predicted_points gender race_type
   <chr>                <int>        <dbl[1d]> <chr>  <chr>    
 1 Marco Schwarz         2561             53.3 M      Combined 
 2 Alexis Pinturault      232             44.5 M      Combined 
 3 Marco Odermatt        3040             43.9 M      Combined 
 4 Loic Meillard         2565             40.9 M      Combined 
 5 Atle Lie McGrath      4711             40.6 M      Combined 
 6 Henrik Kristoffersen  2391             40.1 M      Combined 
 7 Raphael Haaser        4221             36.4 M      Combined 
 8 River Radamus         2986             35.8 M      Combined 
 9 Stefan Brennsteiner   2436             27.1 M      Combined 
10 Filip Zubcic           249             25.9 M      Combined 
# ℹ 51 more rows

$L_Downhill
# A tibble: 55 × 5
   Skier                      ID predicted_points gender race_type
   <chr>                   <int>        <dbl[1d]> <chr>  <chr>    
 1 Mikaela Shiffrin           72             45.6 L      Downhill 
 2 Lara Gut-Behrami           10             43.9 L      Downhill 
 3 Emma Aicher              4194             38.5 L      Downhill 
 4 Kajsa Vickhoff Lie       2963             24.2 L      Downhill 
 5 Alice Robinson           3891             11.4 L      Downhill 
 6 Valerie Grenier           460             10.8 L      Downhill 
 7 Maryna Gasienica Daniel   289             10   L      Downhill 
 8 Wendy Holdener             78              9.6 L      Downhill 
 9 Stefanie Grob            4970              9.2 L      Downhill 
10 Paula Moltzan             294              9.1 L      Downhill 
# ℹ 45 more rows

$L_Super_G
# A tibble: 55 × 5
   Skier                 ID predicted_points gender race_type
   <chr>              <int>        <dbl[1d]> <chr>  <chr>    
 1 Lara Gut-Behrami      10             68.3 L      Super_G  
 2 Mikaela Shiffrin      72             48.6 L      Super_G  
 3 Alice Robinson      3891             31   L      Super_G  
 4 Emma Aicher         4194             29   L      Super_G  
 5 Kajsa Vickhoff Lie  2963             29   L      Super_G  
 6 Valerie Grenier      460             21.8 L      Super_G  
 7 Wendy Holdener        78             18.7 L      Super_G  
 8 Paula Moltzan        294             14.5 L      Super_G  
 9 Julia Scheib        2970             11.9 L      Super_G  
10 Sara Hector          133             11.7 L      Super_G  
# ℹ 45 more rows

$L_Giant_Slalom
# A tibble: 55 × 5
   Skier                      ID predicted_points gender race_type   
   <chr>                   <int>        <dbl[1d]> <chr>  <chr>       
 1 Lara Gut-Behrami           10             64.2 L      Giant_Slalom
 2 Alice Robinson           3891             57.7 L      Giant_Slalom
 3 Paula Moltzan             294             53.6 L      Giant_Slalom
 4 Julia Scheib             2970             49.5 L      Giant_Slalom
 5 Thea Louise Stjernesund  3019             45.8 L      Giant_Slalom
 6 Lara Colturi             5268             42.9 L      Giant_Slalom
 7 Sara Hector               133             40.6 L      Giant_Slalom
 8 Mikaela Shiffrin           72             33.9 L      Giant_Slalom
 9 Zrinka Ljutic            4175             28.5 L      Giant_Slalom
10 Valerie Grenier           460             27.4 L      Giant_Slalom
# ℹ 45 more rows

$L_Slalom
# A tibble: 55 × 5
   Skier                    ID predicted_points gender race_type
   <chr>                 <int>        <dbl[1d]> <chr>  <chr>    
 1 Mikaela Shiffrin         72             71.8 L      Slalom   
 2 Lena Dürr                28             50.9 L      Slalom   
 3 Katharina Liensberger  2921             50.3 L      Slalom   
 4 Wendy Holdener           78             45.4 L      Slalom   
 5 Camille Rast           3229             41.7 L      Slalom   
 6 Paula Moltzan           294             41.2 L      Slalom   
 7 Andreja Slokar         3736             38.7 L      Slalom   
 8 Zrinka Ljutic          4175             37.2 L      Slalom   
 9 Sara Hector             133             28   L      Slalom   
10 Lara Gut-Behrami         10             25.6 L      Slalom   
# ℹ 45 more rows

$L_Combined
# A tibble: 55 × 5
   Skier                    ID predicted_points gender race_type
   <chr>                 <int>        <dbl[1d]> <chr>  <chr>    
 1 Mikaela Shiffrin         72             73.5 L      Combined 
 2 Lara Gut-Behrami         10             54.6 L      Combined 
 3 Wendy Holdener           78             51.9 L      Combined 
 4 Lena Dürr                28             44.2 L      Combined 
 5 Sara Hector             133             42.1 L      Combined 
 6 Paula Moltzan           294             39.9 L      Combined 
 7 Katharina Liensberger  2921             38.1 L      Combined 
 8 Camille Rast           3229             34.5 L      Combined 
 9 Emma Aicher            4194             32   L      Combined 
10 Zrinka Ljutic          4175             29.8 L      Combined 
# ℹ 45 more rows
…
Processing Men's Slalom ...

Processing Men's Combined ...

Processing Women's Downhill ...

Processing Women's Super_G ...

Processing Women's Giant_Slalom ...

Processing Women's Slalom ...

Processing Women's Combined ...
# A tibble: 116 × 5
   Skier                      ID gender race_type predicted_points
   <chr>                   <int> <chr>  <chr>                <dbl>
 1 AJ Hurt                  3886 L      Downhill              23.4
 2 Adam Hofstedt            5449 M      Downhill               6  
 3 Alban Elezi Cannaferina  5693 M      Downhill              12.5
 4 Aleix Aubert Serracanta  6824 M      Downhill               8.6
 5 Alex Vinatzer            4040 M      Downhill              22  
 6 Alexander Schmid         2410 M      Downhill              15.8
 7 Alexis Pinturault         232 M      Downhill              44.5
 8 Alice Robinson           3891 L      Downhill              57.7
 9 Ana Bucik Jogan           180 L      Downhill              20.8
10 Andreas Zampa            1973 M      Downhill               2.4
# ℹ 106 more rows
…
